{

	"ClassTimeTables": [{
			"id": 1,
			"classId": 1,
			"dayName": "Saturday",
			"time": "morning",
			"duration": 2
		},
		{
			"id": 2,
			"classId": 1,
			"dayName": "Saturday",
			"time": "afternoon",
			"duration": 2
		},
		{
			"id": 3,
			"classId": 1,
			"dayName": "Sunday",
			"time": "morning",
			"duration": 2
		},
		{
			"id": 4,
			"classId": 1,
			"dayName": "Sunday",
			"time": "afternoon",
			"duration": 2
		},
		{
			"id": 5,
			"classId": 1,
			"dayName": "Sunday",
			"time": "evening",
			"duration": 2
		}, {
			"id": 6,
			"classId": 2,
			"dayName": "Saturday",
			"time": "morning",
			"duration": 2
		},
		{
			"id": 7,
			"classId": 2,
			"dayName": "Saturday",
			"time": "evening",
			"duration": 2
		},
		{
			"id": 8,
			"classId": 2,
			"dayName": "Sunday",
			"time": "morning",
			"duration": 2
		},
		{
			"id": 9,
			"classId": 2,
			"dayName": "Sunday",
			"time": "afternoon",
			"duration": 2
		},
		{
			"id": 10,
			"classId": 2,
			"dayName": "Sunday",
			"time": "evening",
			"duration": 2
		},{
			"id": 11,
			"classId": 3,
			"dayName": "Saturday",
			"time": "morning",
			"duration": 2
		},
		{
			"id": 12,
			"classId": 3,
			"dayName": "Saturday",
			"time": "afternoon",
			"duration": 2
		},
		{
			"id": 13,
			"classId": 3,
			"dayName": "Sunday",
			"time": "morning",
			"duration": 2
		},
		{
			"id": 14,
			"classId": 3,
			"dayName": "Sunday",
			"time": "afternoon",
			"duration": 2
		},
		{
			"id": 15,
			"classId": 3,
			"dayName": "Sunday",
			"time": "evening",
			"duration": 2
		},{
			"id": 16,
			"classId": 4,
			"dayName": "Saturday",
			"time": "morning",
			"duration": 2
		},
		{
			"id": 17,
			"classId": 4,
			"dayName": "Saturday",
			"time": "afternoon",
			"duration": 2
		},
		{
			"id": 18,
			"classId": 4,
			"dayName": "Saturday",
			"time": "evening",
			"duration": 2
		},
		{
			"id": 19,
			"classId": 4,
			"dayName": "Sunday",
			"time": "afternoon",
			"duration": 2
		},
		{
			"id": 20,
			"classId": 4,
			"dayName": "Sunday",
			"time": "evening",
			"duration": 2
		}, {
			"id": 21,
			"classId": 5,
			"dayName": "Saturday",
			"time": "morning",
			"duration": 2
		},
		{
			"id": 22,
			"classId": 5,
			"dayName": "Saturday",
			"time": "afternoon",
			"duration": 2
		},
		{
			"id": 23,
			"classId": 5,
			"dayName": "Saturday",
			"time": "evening",
			"duration": 2
		},
		{
			"id": 24,
			"classId": 5,
			"dayName": "Sunday",
			"time": "afternoon",
			"duration": 2
		},
		{
			"id": 25,
			"classId": 5,
			"dayName": "Sunday",
			"time": "evening",
			"duration": 2
		}

	]
}